<?xml version="1.0" encoding="utf-8"?>
<!-- Generator: Adobe Illustrator 22.0.1, SVG Export Plug-In . SVG Version: 6.00 Build 0)  -->
<svg version="1.1" id="Capa_1" xmlns="http://www.w3.org/2000/svg" xmlns:xlink="http://www.w3.org/1999/xlink" x="0px" y="0px"
	 viewBox="0 0 512 512" style="enable-background:new 0 0 512 512;" xml:space="preserve">
<style type="text/css">
	.st0{fill:#F57E5D;}
</style>
<g>
	<g>
		<path class="st0" d="M376,30c-27.8,0-53.3,8.8-75.7,26.2C278.8,72.8,264.4,94,256,109.4c-8.4-15.4-22.8-36.6-44.3-53.3
			C189.3,38.8,163.8,30,136,30C58.5,30,0,93.4,0,177.5c0,90.9,72.9,153,183.4,247.1c18.8,16,40,34.1,62.1,53.4c2.9,2.5,6.7,4,10.5,4
			s7.6-1.4,10.5-4c22.1-19.3,43.3-37.4,62.1-53.4C439.1,330.5,512,268.4,512,177.5C512,93.4,453.5,30,376,30z"/>
	</g>
</g>
</svg>
